{"copies":1 , "threads_per_copy":1 , "events_per_thread" : 100 , "CPU_score": {"score": 1.3514, "avg": 1.3514, "median": 1.3514, "min": 1.3514, "max": 1.3514} , "app": "KV_17.8.0.9_SingleMuon"}
{"app":"KV_17.8.0.9_SingleMuon","CPU_score":{"max":1.3514,"min":1.3514,"median":1.3514,"avg":1.3514,"score":1.3514},"events_per_thread":100,"threads_per_copy":1,"copies":1}
{"copies":1,"threads_per_copy":1,"events_per_thread":100,"CPU_score":{"score":1.3514,"avg":1.3514,"median":1.3514,"min":1.3514,"max":1.3514},"app":"KV_17.8.0.9_SingleMuon"}
{"copies":1 , "threads_per_copy":1 , "events_per_thread" : 100 , "CPU_score": {"score": 1.3280, "avg": 1.3280, "median": 1.3280, "min": 1.3280, "max": 1.3280} , "app": "KV_17.8.0.9_SingleMuon"}
{"app":"KV_17.8.0.9_SingleMuon","CPU_score":{"max":1.328,"min":1.328,"median":1.328,"avg":1.328,"score":1.328},"events_per_thread":100,"threads_per_copy":1,"copies":1}
{"copies":1,"threads_per_copy":1,"events_per_thread":100,"CPU_score":{"score":1.3514,"avg":1.3514,"median":1.3514,"min":1.3514,"max":1.3514},"app":"KV_17.8.0.9_SingleMuon"}
{"copies":1 , "threads_per_copy":1 , "events_per_thread" : 100 , "CPU_score": {"score": 1.3532, "avg": 1.3532, "median": 1.3532, "min": 1.3532, "max": 1.3532} , "app": "KV_17.8.0.9_SingleMuon"}
{"app":"KV_17.8.0.9_SingleMuon","CPU_score":{"max":1.3532,"min":1.3532,"median":1.3532,"avg":1.3532,"score":1.3532},"events_per_thread":100,"threads_per_copy":1,"copies":1}
{"copies":1,"threads_per_copy":1,"events_per_thread":100,"CPU_score":{"score":1.3514,"avg":1.3514,"median":1.3514,"min":1.3514,"max":1.3514},"app":"KV_17.8.0.9_SingleMuon"}
